<!--content-->
    <!--header-->
        <!--top-header-->
        <!--./top-header-->
        <!--menu-->
            <!--main-menu-->
            <!--./main-menu-->
            <!--submenu-->
            <!--./submenu-->
        <!--./menu-->
    <!--./header-->
    <!--gis-body-->
        <!--sidebar-->
            <!--layer-->
            <!--./layer-->
            <!--toolbar-->
            <!--./toolbar-->
        <!--./sidebar-->
        <!--map-->
        <!--./map-->
    <!--./gis-body-->
<!--./content-->

//5 cấp bậc
* Đối với fontawsome thì tăng theo font-size
* Đối với img thì tăng theo % hình

